module gitlab.oit.duke.edu/oit-ssi-systems/pcs-module-updater-go

go 1.22

require (
	github.com/charmbracelet/log v0.3.1
	github.com/go-git/go-git/v5 v5.7.0
	github.com/hashicorp/go-version v1.6.0
	github.com/hashicorp/vault/api v1.9.2
	github.com/mitchellh/go-homedir v1.1.0
	github.com/spf13/cobra v1.7.0
	github.com/spf13/viper v1.16.0
	github.com/stretchr/testify v1.8.4
	github.com/xanzy/go-gitlab v0.83.0
	gopkg.in/yaml.v3 v3.0.1
)

require (
	github.com/Microsoft/go-winio v0.6.1 // indirect
	github.com/ProtonMail/go-crypto v0.0.0-20230528122434-6f98819771a1 // indirect
	github.com/acomagu/bufpipe v1.0.4 // indirect
	github.com/aymanbagabas/go-osc52/v2 v2.0.1 // indirect
	github.com/cenkalti/backoff/v3 v3.2.2 // indirect
	github.com/charmbracelet/lipgloss v0.9.1 // indirect
	github.com/cloudflare/circl v1.3.3 // indirect
	github.com/davecgh/go-spew v1.1.2-0.20180830191138-d8f796af33cc // indirect
	github.com/emirpasic/gods v1.18.1 // indirect
	github.com/fatih/color v1.15.0 // indirect
	github.com/fsnotify/fsnotify v1.6.0 // indirect
	github.com/go-git/gcfg v1.5.1-0.20230307220236-3a3c6141e376 // indirect
	github.com/go-git/go-billy/v5 v5.4.1 // indirect
	github.com/go-jose/go-jose/v3 v3.0.0 // indirect
	github.com/go-logfmt/logfmt v0.6.0 // indirect
	github.com/go-test/deep v1.1.0 // indirect
	github.com/golang/groupcache v0.0.0-20210331224755-41bb18bfe9da // indirect
	github.com/golang/protobuf v1.5.3 // indirect
	github.com/google/go-querystring v1.1.0 // indirect
	github.com/hashicorp/errwrap v1.1.0 // indirect
	github.com/hashicorp/go-cleanhttp v0.5.2 // indirect
	github.com/hashicorp/go-hclog v1.5.0 // indirect
	github.com/hashicorp/go-multierror v1.1.1 // indirect
	github.com/hashicorp/go-retryablehttp v0.7.2 // indirect
	github.com/hashicorp/go-rootcerts v1.0.2 // indirect
	github.com/hashicorp/go-secure-stdlib/parseutil v0.1.7 // indirect
	github.com/hashicorp/go-secure-stdlib/strutil v0.1.2 // indirect
	github.com/hashicorp/go-sockaddr v1.0.2 // indirect
	github.com/hashicorp/hcl v1.0.1-vault-5 // indirect
	github.com/imdario/mergo v0.3.16 // indirect
	github.com/inconshreveable/mousetrap v1.1.0 // indirect
	github.com/jbenet/go-context v0.0.0-20150711004518-d14ea06fba99 // indirect
	github.com/kevinburke/ssh_config v1.2.0 // indirect
	github.com/lucasb-eyer/go-colorful v1.2.0 // indirect
	github.com/magiconair/properties v1.8.7 // indirect
	github.com/mattn/go-colorable v0.1.13 // indirect
	github.com/mattn/go-isatty v0.0.19 // indirect
	github.com/mattn/go-runewidth v0.0.15 // indirect
	github.com/mitchellh/mapstructure v1.5.0 // indirect
	github.com/muesli/reflow v0.3.0 // indirect
	github.com/muesli/termenv v0.15.2 // indirect
	github.com/pelletier/go-toml/v2 v2.0.8 // indirect
	github.com/pjbgf/sha1cd v0.3.0 // indirect
	github.com/pmezard/go-difflib v1.0.1-0.20181226105442-5d4384ee4fb2 // indirect
	github.com/rivo/uniseg v0.2.0 // indirect
	github.com/ryanuber/go-glob v1.0.0 // indirect
	github.com/sergi/go-diff v1.3.1 // indirect
	github.com/skeema/knownhosts v1.1.1 // indirect
	github.com/spf13/afero v1.9.5 // indirect
	github.com/spf13/cast v1.5.1 // indirect
	github.com/spf13/jwalterweatherman v1.1.0 // indirect
	github.com/spf13/pflag v1.0.5 // indirect
	github.com/subosito/gotenv v1.4.2 // indirect
	github.com/xanzy/ssh-agent v0.3.3 // indirect
	golang.org/x/crypto v0.14.0 // indirect
	golang.org/x/exp v0.0.0-20231006140011-7918f672742d // indirect
	golang.org/x/mod v0.13.0 // indirect
	golang.org/x/net v0.16.0 // indirect
	golang.org/x/oauth2 v0.8.0 // indirect
	golang.org/x/sys v0.13.0 // indirect
	golang.org/x/text v0.13.0 // indirect
	golang.org/x/time v0.3.0 // indirect
	golang.org/x/tools v0.14.0 // indirect
	google.golang.org/appengine v1.6.7 // indirect
	google.golang.org/protobuf v1.30.0 // indirect
	gopkg.in/ini.v1 v1.67.0 // indirect
	gopkg.in/warnings.v0 v0.1.2 // indirect
)
